^C:\USERS\ELYSCHIR\DOCUMENTS\EXCEPTIONS\EXCEPTIONS\SOURCE.CPP
C:\USERS\ELYSCHIR\DOCUMENTS\EXCEPTIONS\EXCEPTIONS\X64\DEBUG\VC142.PDB
C:\USERS\ELYSCHIR\DOCUMENTS\EXCEPTIONS\EXCEPTIONS\X64\DEBUG\VC142.IDB
C:\USERS\ELYSCHIR\DOCUMENTS\EXCEPTIONS\EXCEPTIONS\X64\DEBUG\SOURCE.OBJ
